[
  {
    "_id": "22ce611c-1fc9-4805-9754-c22a69c43698",
    "colId": "history",
    "containerId": "",
    "name": "https://www.localhost::8000/api/dog",
    "url": "http://localhost:8000/api/person",
    "method": "POST",
    "sortNum": 0,
    "created": "2023-02-01T09:56:06.427Z",
    "modified": "2023-02-03T10:25:03.675Z",
    "headers": [],
    "params": [],
    "body": {
      "type": "json",
      "raw": "{\n    \"id\": 228,\n    \"firstname\": \"Roxanne\",\n    \"name\": \"Kucera\"\n}",
      "form": []
    },
    "tests": []
  }
]